3.72236958513641,38.7282427175306,13.3642667645498,6.71260337374669,1
7.25070473738676,42.7588445513365,11.5211230124228,8.96719951989395,1
3.19572711470011,39.7031960655169,12.6316392426881,7.1884679567699,1
12.2458517907874,51.9800120203611,36.8845793570273,8.42322137001914,1
-41.6339095887444,3.94658347077058,35.3857619042256,12.7482589762524,0
-9.94737130968783,-5.42681610478077,21.3286527072448,15.0124145351872,0
32.6996895018318,28.6159763744164,43.5658817365824,46.7136232722896,0
-6.3109562950235,24.2008926481693,45.7471358055928,9.79249312351036,0
-38.038690694705,-51.5237464666574,9.40249034377712,2.13336326933842,1
-41.1253366687583,-49.5751490884564,4.30807489103189,4.57356457770326,1
-22.1484453786676,10.7465159417048,-24.3380251168338,7.90165494703697,1
-21.4709128647313,11.3357340813532,-24.6076987821984,8.24262648888669,1
-18.6983556061253,20.8764326891159,-30.2879559436568,13.84711717428,1
60.1042576284688,-2.24840590903078,-28.8807217539651,2.53888799725375,1
30.2073401504661,4.87100989917487,-32.8453050449129,4.06291015803129,1
29.1015046597095,4.27805232305894,-29.5507952631814,5.09588378488111,1
31.0074698289804,6.49499285849833,-33.622547890872,3.4953972403198,1
61.2283193959698,-6.72610593537916,-25.551148943898,3.26664308005083,1
-12.8243745027211,23.9986948955547,-23.5692797990864,21.5500986734807,1
-23.6268069603271,26.0775798361491,-38.6792599485915,12.7869988638083,1
-19.4354101675974,20.3931008863937,-28.613208899123,14.3615416316788,1
-14.1639423229523,10.6125243791432,-27.6621810289448,11.2464983029732,1
-19.6677905047828,5.89220404841745,-28.0058535693976,7.5142236045362,1
-22.7766581791122,5.83761545545225,-27.5683708689161,4.07898913903041,0
-55.6790807661891,19.0085768354571,-31.2856114144009,10.5976984268898,0
-23.7508320428411,6.57235603060687,-27.7693736256707,3.04561172883166,0
-47.651186727409,29.5219686558423,-29.8420652438982,9.31963146564573,0
-49.9201321221868,31.0448765881495,-20.1665513218987,7.35536978986234,0
51.280723603572,33.2853636842007,-18.2792683125358,73.7673177589594,0
51.1320044517572,34.5580811600918,-17.6047137724844,74.936592627909,0
53.075297705338,8.55907170981508,-33.3680516230551,53.4118253126314,0
-11.9598657677934,44.8760172557204,22.225237985224,27.6606613997269,0
-9.90366784752703,47.565419437059,24.8115864876886,26.7157524821281,0
51.8852418670689,3.3129813967184,-20.5829279888632,62.8244274688107,0
45.319822352095,23.9748599825338,-21.5916235912802,50.0032240264663,0
29.857985855106,17.9875284596982,-11.9782360595758,41.5463713002805,0
18.3914304404694,12.8905591991064,-28.1226484408333,7.4908463563918,1
15.8505248059072,21.436843636286,-24.2522497604643,10.4130843679113,1
1.86756585332133,72.1590626266119,-18.6383721461251,57.4774828601306,1
-24.1275783767328,51.188631881162,-12.1027031517924,55.2544350414899,1
-32.497323758406,53.5018909741287,-22.3778525607686,51.9510765833157,1
-31.8542337010329,52.3511494287694,-23.0367006239197,50.721757724737,1
-22.8633844441332,-4.68354638518758,-27.2371625022563,51.1740722734884,1
-28.8396923130907,-9.49699306589233,-25.1985145326925,56.4820592558823,1
-29.0912480737922,-6.31289084853597,-27.1600497083339,54.6013222464141,1
-19.0183024790046,2.93409172592692,-27.5339454726848,43.8501819889583,1
-20.120200672364,0.585158982854411,-30.8456407305075,47.7600977985958,1
-20.3043673957715,-42.8244999119007,-0.293626564350554,43.6929219553542,0
-13.1162795806755,27.5495357580619,30.2686865154834,60.2410802682057,0
22.2793171506012,8.01144073794937,-28.8634468208108,60.2292747290677,0
51.6945785554561,-22.8071760609965,-16.0442009260609,94.0652378862769,0
47.4918823659984,21.417194094306,9.87567407750626,11.5361840932934,1
24.6050556840097,19.1902354654815,-31.8862970712801,3.64841536950028,0
59.2258773189381,17.49256961516,-29.395146215262,30.1666288433779,0
-30.6651384842585,10.6773114510099,-24.6590462764046,4.28357949217666,0
-36.120941401739,1.36090845939715,-29.412443939839,8.12618182166129,0
-35.2726525477757,7.97181855715512,-28.1021512687148,4.54396084120265,0
28.486027875325,-35.1913710924268,-36.9056767463626,66.4116580949605,0
-27.1962562414199,4.40230595148801,-31.377605144177,5.32108843868468,0
-29.3554004012168,-35.6723227707016,22.758209959505,3.30917372176919,1
-29.3868694072254,-36.3053303288885,23.1333394048989,2.84835130622277,1
-57.6208410374894,-22.4382768016479,-27.8678551276286,37.5187066012931,1
-43.6134999607484,23.0663848590473,-11.5261999342755,15.313995845202,1
-41.343548670194,20.2532998063451,-15.9494699478728,9.83946807679586,1
-46.6613772371337,11.5835763541038,-5.7053762648419,17.9080909149087,1
39.21403553591,39.035771449725,-39.4820058747114,20.761360401993,1
51.4807882585776,-9.36982989000565,25.2800994201242,59.2172135977588,1
-21.8169650555498,-5.93837887868414,-19.4692988839585,41.8787746802193,1
24.390725319642,-0.58163380591062,-22.7869960470975,6.56592604572214,1
18.8575064590158,-0.850681066195043,-23.3567419453443,6.05859919040593,1
28.2501752263134,-4.59816700762082,-18.7946364785866,6.54996968820448,1
61.7255634353385,10.5023975516799,-21.4403650666908,9.75706269776749,1
61.8192695663199,7.11509168599477,-18.6417869633074,8.67326230483863,1
61.8408393481531,10.440501611641,-22.4478427740238,9.37493236332535,1
62.2655560856884,10.3267443125887,-22.7205678528185,9.32775582142596,1
49.4281201246959,10.951571790958,-13.7122676390966,10.7074644024695,1
12.7493209193398,47.4691316372003,2.41707544672224,34.4860372450226,1
6.46963957230518,27.1599351650323,16.8741639348419,40.9586510592812,1
-17.9594493593269,2.85725966843543,-27.6858884856286,16.0072694838126,1
-19.6006313051277,1.08777451269406,-25.3331574166996,14.4572445177516,1
-19.6104741777473,1.98302189263282,-25.3249850635908,14.4647983984181,1
-16.5235559826586,-8.59729965773644,-23.3354750042341,14.8832755568063,1
-16.5392354215675,-5.88407023993554,-22.9413397277576,16.0269173354291,1
43.8479497988958,31.326578040487,-6.76408786687419,18.247892969776,1
40.2332568989799,27.6623898409139,7.19636431886256,6.15543202080372,1
25.1722033050265,4.94234181069645,20.3062021687975,24.661889385873,1
42.3162170277641,24.8448418043386,-3.59832613116999,12.5506698482701,1
34.3516997278186,25.3627015108505,-6.31271250874912,14.7214206290194,1
43.9886350872256,58.4948339583818,0.362115555462445,46.7980606218821,0
-20.3924669256399,20.5314889220196,-31.9259307250806,67.7289854478627,0
-39.8324352255056,45.4146911569236,-21.9249208793469,66.2974958322061,0
19.599822172464,13.8132733611065,-33.0003445014783,69.3246177535432,0
-22.2472261419485,21.1331449880664,-32.5309006769221,68.6846827473367,0
11.4840803949375,19.0015020319076,-27.7808830492155,33.3341457871357,1
12.935205984944,16.7634560851506,-27.27504764323,35.2884464464974,1
12.0538283197422,22.5817082671574,-26.4016805243946,33.6755548281436,1
-32.1926605693162,14.0236724166325,-28.832451398418,5.06922742511934,1
21.5659507918695,7.07520635408672,-30.690530355022,46.1506213455228,1
49.7933208238587,-15.0700918492437,32.7072451759742,46.8739482845317,0
27.6768535765607,-17.1554853627171,-33.0956917608743,9.45039027500815,1
29.3348646203337,-6.20172648718816,-27.9341033257948,6.20276394147862,1
31.0451807173688,-0.166616649338227,-34.4568483834431,7.28602917716259,1
-42.5254824092742,42.8243602415251,-32.7226935394736,29.947584615309,0
-33.24228761303,11.897461151447,-33.1792132385703,8.22442091932901,0
-10.3982689311859,23.937017957402,-20.9669261940451,5.57305856426225,0
-10.7043052445607,19.1707137724089,-25.2082191475363,4.42612036987146,0
-17.6859702200449,6.44581516918151,-25.5722338260676,9.67098058553153,0
-56.2420440958065,3.133349337434,-14.526066207449,30.661577957927,1
28.7555368457116,-17.3662865355835,-34.6915431936629,55.8820796466263,1
-35.6611965007221,38.9722486645736,-37.3381259832335,40.8737307823854,1
5.4003425274464,52.4920113967638,-34.4921408284522,41.9918864166609,0
4.70537304290525,48.3787760079021,-34.6976280585412,38.2922094074195,0
-34.8118234969783,3.7949532984564,44.1047878194391,25.6425826336738,0
-34.0134057283617,13.5345389814221,-2.77735417840958,44.032742170176,0
-42.7832923164906,5.30002684581968,-24.1774378953503,68.4697999154399,0
-34.3028627731014,24.3999312240749,-0.66595777585708,40.8997973043391,0
-25.4194839374321,-6.8499891884508,42.1223170917616,20.1065079419293,0
-20.0480502854665,-8.21420293497777,37.4076283898555,20.5288633384221,0
-21.0608514277664,9.37028549429744,36.933208515552,3.89529398174678,0
-4.9335227420807,0.992017592512209,35.0072803623083,17.086043984457,0
-29.942853173701,-17.6502670988216,23.0499331282181,31.6137139870233,0
19.9873213964012,13.3844471175624,-20.490957062017,2.87426634110865,1
-46.2118944289976,-1.47046086739823,-19.7305952811522,63.3654007235385,1
52.5267143994603,21.7799649956613,-13.0012552901003,13.1116898765725,1
17.774752525221,13.9588966726416,-18.6888507320942,3.9331809895691,1
20.1358270523257,13.5384438394659,-21.3112754743011,2.40280620599545,1
25.2595413690432,11.8747727889024,-35.6288940867569,1.81551460207375,1
29.7035068474201,12.3295145775353,-39.1998379997561,4.85857783666814,1
28.4996367098875,14.6738167549645,-38.5584141385704,4.41001279942504,1
-30.5174727703893,61.2360252618005,1.06167779190674,2.33837016062462,0
-20.0437714522843,75.8583066542159,-12.6280794260568,13.1586048773663,0
-21.9324370640875,37.3298438936739,26.6355235407781,37.5038182586654,1
-22.9296071944993,36.6140941530733,26.927756478061,38.2637160865427,1
-22.0417255976162,36.0953725725679,27.7009958257308,38.9062818527344,1
11.3729453465977,92.8226353874076,4.34413354562695,46.1943907050199,1
-26.3553986170254,43.1840639661023,26.728589862257,37.5683799203012,1
-60.7160368385461,-18.2380884619915,-17.5594658581191,28.6005167619,0
-13.3810230588192,20.5948951185111,-26.923959531617,15.7953869251707,0
-13.6570766464149,17.4711450676484,-30.2467404834746,14.9959528437662,0
-50.4947045659298,5.61408544981118,-1.69075265549807,25.107749916644,0
-13.8721569076453,15.3089037677013,-22.9159852248747,12.1249474853053,0
-15.8162196961936,27.7363524016368,-22.1886689370922,7.26194049804348,1
-15.408195332146,27.006616497367,-20.8343010451447,6.69043143552705,1
-13.821253373278,25.9378745428089,-22.2877866846165,5.21509400919193,1
-14.2741028740568,25.8737140976681,-23.1969900316051,5.17750531511402,1
-15.1110503716719,26.7110690120155,-21.3212840971512,6.23130851810821,1
15.3828551615425,13.3940373066355,-26.3527451710552,6.37146384191028,0
18.4630114878365,12.1132162216593,-24.1654035983384,8.2476371189249,0
24.9186268493681,14.0763694249877,-21.2328202265402,9.89481685819987,0
23.5548248931913,12.5059834920654,-21.0303429303467,10.4867883076319,0
59.1143401045086,14.9163050985955,-24.2237958184116,26.0340462880585,0
-34.9118151708053,46.2342730706272,15.0597237734096,3.64887442269403,0
-44.1401292526331,-27.9180117634928,-15.4313089329571,70.8550376209237,0
-35.1969850265588,46.2376230529948,16.8589016637633,4.17070782916424,0
-45.6125815752751,28.7998780222738,3.82843555226223,17.1653885797391,0
-48.8000821010186,10.7686346735408,10.4951996526549,30.5744260218415,0
-52.8925276636312,-20.6140271123492,14.0100554216496,38.7266030047118,0
-52.1110501290495,-21.2291854961577,12.5961287672578,37.4695912668848,0
-24.3694831410279,-7.11326251986062,-19.7219166369645,1.3932204309909,0
